{
  "object_kind": "push",
  "before": "41033f58ab336ecd45224ee663dafbc2ef71fe13",
  "after": "4de4a2ba5521667299d28a2281eb168b8ac5981f",
  "ref": "refs/heads/branch1",
  "checkout_sha": "4de4a2ba5521667299d28a2281eb168b8ac5981f",
  "project": {
    "git_http_url": "https://gitlab.com/steverusso/devopsd-dummy.git"
  }
}
